{
	"apiVersion": "v1",
	"kind": "PersistentVolume",
	"metadata": {
		"name": "pv01-random-right"
	},
	"spec": {
		"accessModes": [
			"ReadWriteOnce"
		],
		"capacity": {
			"storage": "1Mi"
		},
		"nfs": {
			"path": "/nfs/openshift/myrandonnamebro",
			"server": "$NFS_SERVER"
		},
		"persistentVolumeReclaimPolicy": "Retain"
	}
}
